<?xml version="1.0" encoding="utf-8"?>
<!-- Generator: Adobe Illustrator 22.1.0, SVG Export Plug-In . SVG Version: 6.00 Build 0)  -->
<svg version="1.1" id="Layer_1" xmlns="http://www.w3.org/2000/svg" xmlns:xlink="http://www.w3.org/1999/xlink" x="0px" y="0px"
	 viewBox="0 0 280 280" style="enable-background:new 0 0 280 280;" xml:space="preserve">
<style type="text/css">
	.st0{fill:#E0E0E0;}
	.st1{fill:#FFFFFF;}
</style>
<circle class="st0" cx="141.5" cy="140.5" r="128.2"/>
<path class="st1" d="M105.4,208.2L98,211c-4.6,11.4-4.6,18.9-4.6,18.9l-28.5,13.3c21.4,16,47.9,25.4,76.7,25.4s55.3-9.5,76.7-25.4
	l-28.5-13.3c0,0,0.3-9.5-4.6-18.9l-7.4-2.8c0,0-2.3-1.3-2-3.1l-0.8-18.2c0,0,7.4-11.8,10.8-28.7c0,0,2.8,1.8,5.4-5.1
	c2.6-6.9,10-32,1.3-28.7l2-21.2l1.1-11.6c0,0,0.3-6.7-2.3-13.3c-1.1-2.8-2.3-4.8-3.5-5.8c-2.8-2.4-4.4-0.9-4.6-3.6
	c-0.3-3.7-3-6.2-7.8-9.9c-5.3-4.1-14.8-10.9-34.6-10.9c-1.5-0.1-6,0-8.5-0.1c-3.7-0.1-9.4-2.6-10.3-3.8c-0.6-0.8,1,3.5,3.8,5.6
	c2.1,1.5,2.9,1.4,2.1,1.5c-0.2,0-1.9-0.1-2.5-0.1c-3.7-0.4-7.4-2.1-7.8-2.2c-0.4-0.2,1.3,1.2,2.7,2.1c1.3,0.8,2.9,1,2,1.1
	c-26.9,4.8-22.5,18-27.5,21.6c-9.1,6.5-9,17.9-9,17.9l3.1,32.8c-8.7-3.3-1.3,21.8,1.3,28.7c2.6,6.9,5.4,5.1,5.4,5.1
	c3.3,16.9,10.8,28.7,10.8,28.7l-0.8,18.2C107.7,206.9,105.4,208.2,105.4,208.2z"/>
<path class="st1" d="M141.5,270.5c-17.5,0-34.6-3.4-50.6-10.2c-7.7-3.3-15.1-7.3-22.1-12c-6.9-4.7-13.4-10-19.2-15.9
	c-5.9-5.9-11.2-12.4-15.9-19.2c-4.7-6.9-8.7-14.4-12-22.1c-6.8-16-10.2-33.1-10.2-50.6c0-17.5,3.4-34.6,10.2-50.6
	c3.3-7.7,7.3-15.1,12-22.1c4.7-6.9,10-13.4,15.9-19.2c5.9-5.9,12.4-11.2,19.2-15.9c6.9-4.7,14.4-8.7,22.1-12
	c16-6.8,33.1-10.2,50.6-10.2s34.6,3.4,50.6,10.2c7.7,3.3,15.1,7.3,22.1,12c6.9,4.7,13.4,10,19.2,15.9c5.9,5.9,11.2,12.4,15.9,19.2
	c4.7,6.9,8.7,14.4,12,22.1c6.8,16,10.2,33.1,10.2,50.6c0,17.5-3.4,34.6-10.2,50.6c-3.3,7.7-7.3,15.1-12,22.1
	c-4.7,6.9-10,13.4-15.9,19.2c-5.9,5.9-12.4,11.2-19.2,15.9c-6.9,4.7-14.4,8.7-22.1,12C176.1,267.1,159,270.5,141.5,270.5z
	 M141.5,14.1c-69.7,0-126.4,56.7-126.4,126.4s56.7,126.4,126.4,126.4s126.4-56.7,126.4-126.4S211.2,14.1,141.5,14.1z"/>
</svg>
