<?xml version="1.0" encoding="utf-8"?>
<!-- Generator: Adobe Illustrator 22.1.0, SVG Export Plug-In . SVG Version: 6.00 Build 0)  -->
<svg version="1.1" id="Layer_1" xmlns="http://www.w3.org/2000/svg" xmlns:xlink="http://www.w3.org/1999/xlink" x="0px" y="0px"
	 viewBox="0 0 96 96" style="enable-background:new 0 0 96 96;" xml:space="preserve">
<style type="text/css">
	.st0{fill:none;stroke:#43D3E8;stroke-width:2;stroke-miterlimit:10;}
	.st1{fill:none;stroke:#403E3E;stroke-width:2;stroke-miterlimit:10;}
	.st2{fill:none;stroke:#F96232;stroke-width:2;stroke-miterlimit:10;}
</style>
<g>
	<g>
		<path class="st0" d="M49.7,15.6L38.3,7H15.4v57.2c0,1.5-0.6,2.9-1.7,4c-1.1,1.1-2.6,1.7-4,1.7h77.2c1.5,0,2.9-0.6,4-1.7
			c1.1-1.1,1.7-2.6,1.7-4V15.6H49.7z"/>
		<line class="st1" x1="51.1" y1="9.9" x2="94" y2="9.9"/>
		<path class="st1" d="M9.7,69.9L9.7,69.9c-1.5,0-2.9-0.6-4-1.7c-1.1-1.1-1.7-2.6-1.7-4V9.9h7.1"/>
		<g>
			<line class="st1" x1="19.7" y1="15.6" x2="36.8" y2="15.6"/>
			<line class="st1" x1="19.7" y1="21.3" x2="28.3" y2="21.3"/>
		</g>
	</g>
	<g>
		<line class="st1" x1="15.4" y1="84.2" x2="48.3" y2="84.2"/>
		<path class="st2" d="M90.9,80.1c-1.1-1.1-2.6-1.7-4-1.7H54v11.4h32.9c1.5,0,2.9-0.6,4-1.7c1.1-1.1,1.7-2.6,1.7-4
			C92.6,82.7,92,81.2,90.9,80.1z"/>
		<rect x="48.3" y="81.3" class="st2" width="5.7" height="5.7"/>
		<polygon class="st1" points="4,82.7 12.5,81.3 15.4,84.2 12.5,87 4,85.6 		"/>
		<line class="st1" x1="64" y1="84.2" x2="66.8" y2="84.2"/>
		<line class="st1" x1="69.7" y1="84.2" x2="72.6" y2="84.2"/>
		<line class="st1" x1="75.4" y1="84.2" x2="78.3" y2="84.2"/>
		<line class="st2" x1="59.7" y1="78.5" x2="59.7" y2="89.9"/>
	</g>
	<g>
		<path class="st1" d="M71.1,44.2v-2.9l-4.5-1.1c-0.3-1.6-1-3.2-1.9-4.5l2.4-4l-2-2l-4,2.4c-1.4-0.9-2.9-1.5-4.5-1.9l-1.1-4.5h-2.9
			l-1.1,4.5c-1.6,0.3-3.2,1-4.5,1.9l-4-2.4l-2,2l2.4,4c-0.9,1.4-1.5,2.9-1.9,4.5l-4.5,1.1v2.9l4.5,1.1c0.3,1.6,1,3.2,1.9,4.5l-2.4,4
			l2,2l4-2.4c1.4,0.9,2.9,1.5,4.5,1.9l1.1,4.5h2.9l1.1-4.5c1.6-0.3,3.2-1,4.5-1.9l4,2.4l2-2l-2.4-4c0.9-1.4,1.5-2.9,1.9-4.5
			L71.1,44.2z"/>
		<circle class="st2" cx="54" cy="42.7" r="7.1"/>
		<line class="st1" x1="52.6" y1="42.7" x2="55.4" y2="42.7"/>
	</g>
</g>
</svg>
