<?xml version="1.0" encoding="utf-8"?>
<!-- Generator: Adobe Illustrator 22.1.0, SVG Export Plug-In . SVG Version: 6.00 Build 0)  -->
<svg version="1.1" id="Layer_1" xmlns="http://www.w3.org/2000/svg" xmlns:xlink="http://www.w3.org/1999/xlink" x="0px" y="0px"
	 viewBox="0 0 19.3 19.3" style="enable-background:new 0 0 19.3 19.3;" xml:space="preserve">
<style type="text/css">
	.st0{fill:none;}
	.st1{fill:#43D2E8;}
</style>
<rect x="1.3" y="5.8" class="st0" width="16" height="9"/>
<path class="st1" d="M16.6,10.7c-0.8,1.1-1.9,1.9-3.1,2.6c-0.3,0.2-0.7,0.3-1.1,0.4c0.9-0.8,1.5-2,1.5-3.3s-0.6-2.5-1.5-3.3
	c0.4,0.1,0.7,0.3,1.1,0.4c1.2,0.6,2.3,1.5,3.1,2.6C16.7,10.2,16.7,10.5,16.6,10.7L16.6,10.7z M5.2,13.2c-1.2-0.6-2.3-1.5-3.1-2.6
	c-0.2-0.2-0.2-0.5,0-0.7C2.9,8.9,4,8,5.2,7.4C5.6,7.3,5.9,7.1,6.3,7c-0.9,0.8-1.5,2-1.5,3.3s0.6,2.5,1.5,3.3
	C5.9,13.6,5.6,13.4,5.2,13.2L5.2,13.2z M9.3,14.2c-2.1,0-3.9-1.7-3.9-3.9c0-2.1,1.7-3.9,3.9-3.9c2.1,0,3.9,1.7,3.9,3.9
	C13.2,12.5,11.5,14.2,9.3,14.2L9.3,14.2z M17.1,9.6c-0.9-1.1-2.1-2.1-3.4-2.7c-1.3-0.7-2.8-1-4.3-1H9.2c-1.5,0-2.9,0.4-4.3,1
	C3.7,7.5,2.5,8.4,1.6,9.6c-0.3,0.4-0.3,1.1,0,1.5c0.9,1.1,2.1,2.1,3.4,2.7c1.3,0.7,2.8,1,4.3,1h0.2c1.5,0,2.9-0.4,4.3-1
	c1.3-0.6,2.5-1.6,3.4-2.7C17.4,10.6,17.4,10,17.1,9.6L17.1,9.6z"/>
<path class="st1" d="M9.3,11.3c-0.6,0-1-0.5-1-1c0-0.6,0.5-1,1-1c0.6,0,1,0.5,1,1C10.3,10.9,9.9,11.3,9.3,11.3L9.3,11.3z M9.3,8.7
	c-0.9,0-1.7,0.7-1.7,1.6S8.4,12,9.3,12c0.9,0,1.7-0.7,1.7-1.6S10.2,8.7,9.3,8.7L9.3,8.7z"/>
</svg>
