<?xml version="1.0" encoding="utf-8"?>
<!-- Generator: Adobe Illustrator 19.2.0, SVG Export Plug-In . SVG Version: 6.00 Build 0)  -->
<svg version="1.0" id="_x2014_ÎÓÈ_x5F_1" xmlns="http://www.w3.org/2000/svg" xmlns:xlink="http://www.w3.org/1999/xlink"
	 x="0px" y="0px" viewBox="0 0 40 42.1" style="enable-background:new 0 0 40 42.1;" xml:space="preserve">
<style type="text/css">
	.st0{fill:#34A9D6;}
</style>
<g>
	<path class="st0" d="M33,21c0-1.5-0.8-2.8-2.5-3V9.5C30.5,9.2,30.3,9,30,9h-2c-0.2,0-0.3,0.1-0.4,0.2c-5.4,7.3-8.5,7.3-11.6,7.3
		h-5.5c-2.2,0-4,1.8-4,4v1c0,2.2,1.8,4,4,4H16c3.1,0,6.2,0,11.6,7.3c0.1,0.1,0.2,0.2,0.4,0.2h2c0.3,0,0.5-0.2,0.5-0.5V24
		C32.2,23.8,33,22.5,33,21z M7.5,21.5v-1c0-1.7,1.3-3,3-3h5v7h-5C8.8,24.5,7.5,23.2,7.5,21.5z M29.5,32h-1.2
		c-5.3-7.1-8.8-7.5-11.8-7.5c0,0,0,0,0,0v-7c0,0,0,0,0,0c3,0,6.5-0.4,11.8-7.5h1.2V32z M30.5,23V19c1.1,0.2,1.5,1,1.5,2
		S31.6,22.8,30.5,23z"/>
	<path class="st0" d="M16.5,32l-0.4-0.3c-0.3-0.2-0.7-0.8-0.7-1.2l-0.4-4c0-0.3-0.3-0.5-0.5-0.4c-0.3,0-0.5,0.3-0.4,0.5l0.4,4
		c0.1,0.7,0.5,1.5,1.1,1.9l0.4,0.3c0.3,0.2,0.6,0.7,0.6,1c0,0.1-0.2,0.2-0.5,0.2h-4c-0.3,0-0.6-0.3-0.6-0.6l-0.9-7
		c0-0.3-0.3-0.5-0.6-0.4c-0.3,0-0.5,0.3-0.4,0.6l0.9,7c0.1,0.8,0.8,1.4,1.6,1.4h4c0.8,0,1.5-0.6,1.5-1.2
		C17.5,33.2,17.1,32.4,16.5,32z"/>
	<path class="st0" d="M14,18.5h-3c-0.1,0-0.7,0-1.4,0.6c-0.2,0.2-0.2,0.5,0,0.7C9.7,20,9.9,20,10,20c0.1,0,0.3,0,0.4-0.1
		c0.3-0.3,0.6-0.4,0.6-0.4h3c0.3,0,0.5-0.2,0.5-0.5S14.3,18.5,14,18.5z"/>
</g>
</svg>
