<?xml version="1.0" encoding="utf-8"?>
<!-- Generator: Adobe Illustrator 19.2.0, SVG Export Plug-In . SVG Version: 6.00 Build 0)  -->
<svg version="1.0" id="_x2014_ÎÓÈ_x5F_1" xmlns="http://www.w3.org/2000/svg" xmlns:xlink="http://www.w3.org/1999/xlink"
	 x="0px" y="0px" viewBox="0 0 40 42.1" style="enable-background:new 0 0 40 42.1;" xml:space="preserve">
<style type="text/css">
	.st0{fill:#34A9D6;}
</style>
<g>
	<g>
		<path class="st0" d="M29.5,36.4H22l0.1-24.9l-11.8,5v19.2H9V13l14.3-6.5l0.2,0.5l6,6.3V36.4z M23.2,35.2h5.1V13.8l-5.5-5.7
			l-12.6,5.7v1.4l13-5.5L23.2,35.2z"/>
	</g>
	<g>
		<path class="st0" d="M12.5,21.2v-3.9l7.9-3.2v4.6L12.5,21.2z M13.7,18.2v1.4l5.4-1.7V16L13.7,18.2z"/>
	</g>
	<g>
		<path class="st0" d="M12.5,26.2v-3.6l7.9-2.1v4.8L12.5,26.2z M13.7,23.5v1.3l5.4-0.6V22L13.7,23.5z"/>
	</g>
	<g>
		<path class="st0" d="M20.3,31.1h-7.9v-3.7l7.9-0.7V31.1z M13.7,29.9h5.4v-1.8l-5.4,0.5V29.9z"/>
	</g>
	<g>
		<path class="st0" d="M20.3,36.4L12.5,36v-3.2h7.9V36.4z M13.7,34.9l5.4,0.2V34h-5.4V34.9z"/>
	</g>
</g>
</svg>
