<?xml version="1.0" encoding="utf-8"?>
<!-- Generator: Adobe Illustrator 19.2.0, SVG Export Plug-In . SVG Version: 6.00 Build 0)  -->
<svg version="1.0" id="_x2014_ÎÓÈ_x5F_1" xmlns="http://www.w3.org/2000/svg" xmlns:xlink="http://www.w3.org/1999/xlink"
	 x="0px" y="0px" viewBox="0 0 40 42.1" style="enable-background:new 0 0 40 42.1;" xml:space="preserve">
<style type="text/css">
	.st0{fill:#34A9D6;}
</style>
<g id="XMLID_387_">
	<g id="XMLID_388_">
		<path id="XMLID_793_" class="st0" d="M33.2,35.8H22.7v-8.3h-5.3v8.3H6.8V21.6L20,8.4l13.3,13.2V35.8z M25.3,33.2h5.3V22.7L20,12.1
			L9.4,22.7v10.5h5.3v-8.3h10.6V33.2z"/>
	</g>
</g>
</svg>
